
md={1:31,2:28,3:31,4:30,5:31,6:30,7:31,8:31,9:30,10:31,11:30,12:31}

def date(d,m,y):
    if y<0 or m<1 or d<1 or m>12 or y!=int(y) or m!=int(m) or d!=int(d):
        print(False)
        return False
    if y % 4!=0 :
        if d<=md[m]:
            print(True)
            return True
    else:
        if m==2 and d<=29:
            print(True)
            return True
        if d<=md[m]:
            print (True)
            return True
    print (False)
    return False
            
            


# date(25,12,16)